…
## Example

Common workflow entails looking up the site id from the sites database,
getting either all or some locations from it and at the end getting the
relevant data series.

``` r
library(dendrogreif)

## initialize database connection from credentials file.
conn <- con_init("creds")

#list all sites in the database
list_sites(conn)
#> # A tibble: 27 × 6
#>    site_id name                     description       gps   parent_id short_name
#>      <int> <chr>                    <chr>             <pq_>     <int> <chr>     
#>  1       3 Eldena_managed           Protected since … (54.…        NA EMA       
#>  2       4 Eldena_Tilia             Landesforst expe… (54.…        NA ETI       
#>  3       5 Eldena_Alnus_Ulmus       Aldercarr         (54.…        NA EAU       
#>  4       6 Demmin                   FemoPhys crane s… (53.…        NA DEM       
#>  5       7 Ladebow                  Mixed pine oak b… (54.…        NA LAD       
#>  6       8 Friedrichsmoor_Oak_Beech HydroForMix site  (53.…        NA FOB       
#>  7       9 Friedrichsmoor_Oak       HydroForMix site  (53.…        NA FOA       
#>  8      10 Friedrichsmoor_Beech     HydroForMix site  (53.…        NA FBE       
#>  9      11 Bremerhagen_Oak_Carpinus HydroForMix site  (54.…        NA BOC       
#> 10      12 Bremerhagen_Oak          HydroForMix site  (54.…        NA BOA       
#> # ℹ 17 more rows
…
